<svg id="Header1" xmlns="http://www.w3.org/2000/svg" width="375" height="72" viewBox="0 0 375 72">
  <path id="Trazado_232" data-name="Trazado 232" d="M375,0V69.715C295.66,27.44,254.763,11.014,190.254,53.78,160.174,70.93,139.579,74.3,97.13,70.711,54.213,64.061,33.072,55.554,0,32.866V0Z" fill="#e71618"/>
</svg>
